@startuml piece
abstract class Piece {
  color: PieceColor
  square? : Square
  validMoves(): List<Position>
}

enum PieceColor {
  WHITE
  BLACK
  RED
  GREEN
}

class King extends Piece {
}
class Queen extends Piece {
}
class Pawn extends Piece {
}
class Bishop extends Piece {
}
class Knight extends Piece {
}
class Rook extends Piece {
}
class Sniper extends Piece {
}

@enduml