{
  "type": "service_account",
  "project_id": "chess-2-afb36",
  "private_key_id": "a98a90dcb518034036771c138c399a2a665cc5a1",
  "private_key": "-----BEGIN PRIVATE KEY-----\nMIIEvgIBADANBgkqhkiG9w0BAQEFAASCBKgwggSkAgEAAoIBAQCz/PHMeuYJBgcI\nx7hsGvsUgRP3AJE3/Hai9aVDkyVGxcRNFE8hf/t17EMAgGpVhyQ8wB8Dvs4I5c9a\nxVXA/r//C9arYjDlNRo41VS5qOF2zFpoFAPIx4waaGNg5Jo1B7RoJKsk5HToUdSS\n0/BVENccr0sYNAM+zLqjJ4/c6/d4sc/mPkZRft1lcCN9m3nraTdEI0befowNA/iv\neGZnZuHqr73gWwlBdvz9aJ3KwFGIGqpYTibhyT2MBrodWYwCmD/6QwBb7gYI/WTJ\naW3xNUiMP0tk8SURCj2PF9fWdocHRcwtVOrp2PWnGHfAN7hvZT340xivh6CGyePg\n1staWp/DAgMBAAECggEAFAvO1cfgWU6Zt6F1ibDNmGsx5ozidPpXhO8tVg6MPyAl\nV10KMoB3E3CvcQhcZM81kCs+U7lLaD6e2WITcCMkuMrAQNFMVyg9az6zU4RFgZOM\nBCh/2BEFf9Fy3rvx7YhrUD1j7wAfgdp5/apri4XhzM48jmMInioeJVrG0UOvXyU6\nvAsuz2/Cr7SujFv0OuZR5F27xZ8um7IJH7tr+SsgTTOornNM9SeXqVI6M+nBsJMq\nxvLbOolOpRTUcxaIeYZhDVL6Jhjk0R7OA5vN9d3OYCOZ/D5kIFzo+ZAuSnOjhNLZ\nhqTwmcKuiO0eb4p/E1nqENtx6io5I/qJyba/i6MsKQKBgQDoT9mS6T3VQE/PA3z8\nQ5tZqAGpIcV1/zI0QV2phixD6FRmIOuY2HWsgqJVDuCEg0tAdg3ggi/aeZ4dU6pT\nBK6xnVfImbtWAgXRzjrz67Pi7eGTczvkqmSV6j/7FqoIKamJh89YXEUw6TUHdASZ\nP0WNa3OeZZMW9LHcPF3gPPd3CQKBgQDGV0KKGu2qgK0MqiabY/Fmwpz2FwNNnPT4\nCSWLbKZ9VWFxkaqUlUtJ6ZEODvrcjNUMRW/wI8gh3UZSeNrKysIkw6Un1UOl7oLu\nFEVFdxiOiFjix2o38IiIaC4L4EvDVBiCiwOV0Efy7y1sT7KYNgKuiCoQfqQWgJ8a\nK2CfIl2nawKBgQCFQB/lY4HDCwN8E10ieUjnUTW6pJNVjk5mqMOnlD1Zqi6W8fUR\nE7/Tdo7USRdBCuokDFMDXslCAJZP7gh5W+s0F7MdbgiFWd2qrScleCITXS0RXXyS\nOaY+U0HlrOdUjUkgiNTGsw5A8tMm9kYY/LDRYDvONCb9eNd4IuwZzf6HuQKBgQCp\nRbeoHitQJNmLwXuJitZvmRBUhndvOdFoDoZYY7YDqWasgmFOxcunnQsLMIWwzRDW\nlDxgemlHXY2yvSodgMYIkmDVihFeAB0GC47DJk1y97LEeOSSMVqU8DS8NgTzA0aX\nwwSgS03ca3wcwDfv58iKI/OieDKacdNXhkXECpRbWQKBgEoa5+Gi/3YgtNwowZOC\nt0vQHl7iB1O/DgVZz35PDlSXrqqFmDtj4Rumm3cj46zghEzQC6Lp57hlhsZXeEup\nUwFXy+OKKRmWGJFDJwYhwhWPmTr5gzpC7aye24QmqUBYLu5eMvShMPo6xv+WZZ33\ngHg8YnRWfpYcX7ON4OPt2hPh\n-----END PRIVATE KEY-----\n",
  "client_email": "firebase-adminsdk-hxj89@chess-2-afb36.iam.gserviceaccount.com",
  "client_id": "105101697648132298644",
  "auth_uri": "https://accounts.google.com/o/oauth2/auth",
  "token_uri": "https://oauth2.googleapis.com/token",
  "auth_provider_x509_cert_url": "https://www.googleapis.com/oauth2/v1/certs",
  "client_x509_cert_url": "https://www.googleapis.com/robot/v1/metadata/x509/firebase-adminsdk-hxj89%40chess-2-afb36.iam.gserviceaccount.com",
  "universe_domain": "googleapis.com"
}
