@startuml
class com.mygdx.game.ChessGame {
+ {static} float WIDTH
+ {static} float HEIGHT
~ APIClientProvider apiProvider
+ void create()
+ void render()
+ void dispose()
+ void resize(int,int)
}




com.badlogic.gdx.ApplicationAdapter <|-- com.mygdx.game.ChessGame
@enduml